hw4
…
The boxplot I think clearly shows that the increase in weight gain as the value of your diet again increases based on looking at the median but breaks after diet 2. I see this because the median for diet 3 is larger than diet 4. You can also see that the diet there has the highest weight gain based on the IQR and the median shown. But I guess who could also see there isnt an obvious relationship between the the diets but you could say that chicks are prone to more weight gain if diets over 3.

Answer each of the following questions using numerical and graphical summary. Also explain what you found: (a) Which chick gained the most weight and which gained the least weight? (b) What diets were they on?

weightGain<- complete %>% 
  filter(Time == 21)
print(weightGain)

## # A tibble: 45 x 5
## # Groups:   Chick [45]
##    weight  Time Chick Diet  weightgain
##     <dbl> <dbl> <ord> <fct>      <dbl>
##  1    205    21 1     1            163
##  2    215    21 2     1            175
##  3    202    21 3     1            159
##  4    157    21 4     1            115
##  5    223    21 5     1            182
##  6    157    21 6     1            116
##  7    305    21 7     1            264
##  8     98    21 9     1             56
##  9    124    21 10    1             83
## 10    175    21 11    1            132
## #  with 35 more rows
…
For the output above I was curious to see what diet the lightest chicks were on and what diet the heavest chick was on. The lightest chicks all started on day 0 obviously but you can see that there diet range throught out the different diets 1-4. You can also see that the heaviest chick ended up being on the 3rd diet which does make sense from the findings from before in the boxplot above.

minMax<- complete %>%
  group_by(Chick) %>%
  filter(Chick == 1 | Chick == 50) %>%
  print

## # A tibble: 24 x 5
## # Groups:   Chick [2]
##    weight  Time Chick Diet  weightgain
##     <dbl> <dbl> <ord> <fct>      <dbl>
##  1     42     0 1     1              0
##  2     51     2 1     1              9
##  3     59     4 1     1             17
##  4     64     6 1     1             22
##  5     76     8 1     1             34
##  6     93    10 1     1             51
##  7    106    12 1     1             64
##  8    125    14 1     1             83
##  9    149    16 1     1            107
## 10    171    18 1     1            129
## #  with 14 more rows
…
